%YAML 1.1
%TAG !u! tag:unity3d.com,2011:
--- !u!114 &11400000
MonoBehaviour:
  m_ObjectHideFlags: 0
  m_CorrespondingSourceObject: {fileID: 0}
  m_PrefabInstance: {fileID: 0}
  m_PrefabAsset: {fileID: 0}
  m_GameObject: {fileID: 0}
  m_Enabled: 1
  m_EditorHideFlags: 0
  m_Script: {fileID: 11500000, guid: 02542c56ce7703d458ef43c306ff5374, type: 3}
  m_Name: Armor
  m_EditorClassIdentifier: 
  itemName: Armor 1
  description: 
  weight: 0
  worth: 0
  artwork: {fileID: 21300000, guid: 4f877030fbaf60d4aa46a1be4d5e0a09, type: 3}
  type: 2
  owner: {fileID: 0}
  equipped: 1
  stats:
    maxHp: 40
    hp: 0
    maxMana: 0
    mana: 0
    walkMovementSpeed: -10
    runMovementSpeed: 0
    deffLevel: 15
    power: 2
    magicPower: 0
    jumpForce: 10
