%YAML 1.1
%TAG !u! tag:unity3d.com,2011:
--- !u!74 &7400000
AnimationClip:
  m_ObjectHideFlags: 0
  m_CorrespondingSourceObject: {fileID: 0}
  m_PrefabInstance: {fileID: 0}
  m_PrefabAsset: {fileID: 0}
  m_Name: ArcherAttack
  serializedVersion: 6
  m_Legacy: 0
  m_Compressed: 0
  m_UseHighQualityCurve: 1
  m_RotationCurves: []
  m_CompressedRotationCurves: []
  m_EulerCurves: []
  m_PositionCurves: []
  m_ScaleCurves: []
  m_FloatCurves: []
  m_PPtrCurves:
  - curve:
    - time: 0
      value: {fileID: -2618184935822849615, guid: 44287d1c4634f344c8703032a24d81aa, type: 3}
    - time: 0.083333336
      value: {fileID: 104539616309764384, guid: 44287d1c4634f344c8703032a24d81aa, type: 3}
    - time: 0.16666667
      value: {fileID: 2758593997303328221, guid: 44287d1c4634f344c8703032a24d81aa, type: 3}
    - time: 0.25
      value: {fileID: 639634768466116409, guid: 44287d1c4634f344c8703032a24d81aa, type: 3}
    - time: 0.33333334
      value: {fileID: 8749684644583256625, guid: 44287d1c4634f344c8703032a24d81aa, type: 3}
    - time: 0.41666666
      value: {fileID: 336279900365808041, guid: 44287d1c4634f344c8703032a24d81aa, type: 3}
    - time: 0.5
      value: {fileID: 7630896237323373528, guid: 44287d1c4634f344c8703032a24d81aa, type: 3}
    - time: 0.5833333
      value: {fileID: 7072816463538014311, guid: 44287d1c4634f344c8703032a24d81aa, type: 3}
    - time: 0.6666667
      value: {fileID: 1523633569655397108, guid: 44287d1c4634f344c8703032a24d81aa, type: 3}
    - time: 0.75
      value: {fileID: -8262910551278234152, guid: 44287d1c4634f344c8703032a24d81aa, type: 3}
    attribute: m_Sprite
    path: 
    classID: 212
    script: {fileID: 0}
  m_SampleRate: 12
  m_WrapMode: 0
  m_Bounds:
    m_Center: {x: 0, y: 0, z: 0}
    m_Extent: {x: 0, y: 0, z: 0}
  m_ClipBindingConstant:
    genericBindings:
    - serializedVersion: 2
      path: 0
      attribute: 0
      script: {fileID: 0}
      typeID: 212
      customType: 23
      isPPtrCurve: 1
    pptrCurveMapping:
    - {fileID: -2618184935822849615, guid: 44287d1c4634f344c8703032a24d81aa, type: 3}
    - {fileID: 104539616309764384, guid: 44287d1c4634f344c8703032a24d81aa, type: 3}
    - {fileID: 2758593997303328221, guid: 44287d1c4634f344c8703032a24d81aa, type: 3}
    - {fileID: 639634768466116409, guid: 44287d1c4634f344c8703032a24d81aa, type: 3}
    - {fileID: 8749684644583256625, guid: 44287d1c4634f344c8703032a24d81aa, type: 3}
    - {fileID: 336279900365808041, guid: 44287d1c4634f344c8703032a24d81aa, type: 3}
    - {fileID: 7630896237323373528, guid: 44287d1c4634f344c8703032a24d81aa, type: 3}
    - {fileID: 7072816463538014311, guid: 44287d1c4634f344c8703032a24d81aa, type: 3}
    - {fileID: 1523633569655397108, guid: 44287d1c4634f344c8703032a24d81aa, type: 3}
    - {fileID: -8262910551278234152, guid: 44287d1c4634f344c8703032a24d81aa, type: 3}
  m_AnimationClipSettings:
    serializedVersion: 2
    m_AdditiveReferencePoseClip: {fileID: 0}
    m_AdditiveReferencePoseTime: 0
    m_StartTime: 0
    m_StopTime: 0.8333333
    m_OrientationOffsetY: 0
    m_Level: 0
    m_CycleOffset: 0
    m_HasAdditiveReferencePose: 0
    m_LoopTime: 1
    m_LoopBlend: 0
    m_LoopBlendOrientation: 0
    m_LoopBlendPositionY: 0
    m_LoopBlendPositionXZ: 0
    m_KeepOriginalOrientation: 0
    m_KeepOriginalPositionY: 1
    m_KeepOriginalPositionXZ: 0
    m_HeightFromFeet: 0
    m_Mirror: 0
  m_EditorCurves: []
  m_EulerEditorCurves: []
  m_HasGenericRootTransform: 0
  m_HasMotionFloatCurves: 0
  m_Events: []
